Data visualisation with ggplot2
…
frames_small
```
]]]
]]

.column.bg-main3[.content.vtop.center[
.pull.left[.pad1[.font2[

```
## # A tibble: 225 x 5
##       id gender   age condition response
##    <int> <chr>  <int> <chr>        <dbl>
##  1     1 male      36 category      5.33
##  2     2 male      46 category      7.05
##  3     3 female    33 property      4.86
##  4     4 female    71 property      3.86
##  5     5 female    23 property      9   
##  6     6 female    31 category      7.90
##  7     7 male      23 property      3.76
##  8     8 female    31 property      4   
##  9     9 female    37 category      3.38
## 10    10 female    46 category      5.86
## # ... with 215 more rows
```
…
frames_mean
```
]]]
]]

.column.bg-main3[.content.vtop.center[
.pad1[.font2[

```
## # A tibble: 42 x 6
## # Groups:   condition, sample_size [?]
##    condition sample_size test_item  resp lower upper
##    <chr>     <chr>           <int> <dbl> <dbl> <dbl>
##  1 category  large               1  7.60  7.16  8.04
##  2 category  large               2  7.51  7.14  7.88
##  3 category  large               3  6.39  5.95  6.84
##  4 category  large               4  5.39  4.86  5.93
##  5 category  large               5  4.72  4.13  5.30
##  6 category  large               6  4.43  3.79  5.07
##  7 category  large               7  4.18  3.53  4.82
##  8 category  medium              1  7.32  6.85  7.78
##  9 category  medium              2  7.17  6.80  7.54
## 10 category  medium              3  5.98  5.54  6.42
## # ... with 32 more rows
```
…
