Statistical modelling
…
tinyframes
```
]]]
]]

.column.bg-main3[.content.vtop.center[
.pull.left[.pad1[.font2[

```
## # A tibble: 225 x 4
##       id   age condition response
##    <int> <int> <chr>        <dbl>
##  1     1    36 category      5.33
##  2     2    46 category      7.05
##  3     3    33 property      4.86
##  4     4    71 property      3.86
##  5     5    23 property      9   
##  6     6    31 category      7.90
##  7     7    23 property      3.76
##  8     8    31 property      4   
##  9     9    37 category      3.38
## 10    10    46 category      5.86
## # ... with 215 more rows
```
…
