…
``` r
frames
```

    ## # A tibble: 4,725 x 8
    ##       id gender   age condition sample_size n_obs test_item response
    ##    <int> <chr>  <int> <chr>     <chr>       <int>     <int>    <int>
    ##  1     1 male      36 category  small           2         1        8
    ##  2     1 male      36 category  small           2         2        7
    ##  3     1 male      36 category  small           2         3        6
    ##  4     1 male      36 category  small           2         4        6
    ##  5     1 male      36 category  small           2         5        5
    ##  6     1 male      36 category  small           2         6        6
    ##  7     1 male      36 category  small           2         7        3
    ##  8     1 male      36 category  medium          6         1        9
    ##  9     1 male      36 category  medium          6         2        7
    ## 10     1 male      36 category  medium          6         3        5
    ## # ... with 4,715 more rows
…
