…
### Relationship between linear models, ANOVA and t-test

Average within subject so there's just one response per person:

``` r
frames_small <- frames %>%
  group_by(id, age, condition) %>%
  summarise(
    response = mean(response)
    ) %>%
  ungroup()
frames_small
```

    ## # A tibble: 225 x 4
    ##       id   age condition response
    ##    <int> <int> <chr>        <dbl>
    ##  1     1    36 category      5.33
    ##  2     2    46 category      7.05
    ##  3     3    33 property      4.86
    ##  4     4    71 property      3.86
    ##  5     5    23 property      9   
    ##  6     6    31 category      7.90
    ##  7     7    23 property      3.76
    ##  8     8    31 property      4   
    ##  9     9    37 category      3.38
    ## 10    10    46 category      5.86
    ## # ... with 215 more rows
…
    ## The following object is masked from 'package:tidyr':
    ## 
    ##     expand

``` r
frames_ss <- frames %>% 
  group_by(id, age, condition, n_obs) %>%
  summarise(response = mean(response)) %>%
  ungroup()
frames_ss
```

    ## # A tibble: 675 x 5
    ##       id   age condition n_obs response
    ##    <int> <int> <chr>     <int>    <dbl>
    ##  1     1    36 category      2     5.86
    ##  2     1    36 category      6     5.29
    ##  3     1    36 category     12     4.86
    ##  4     2    46 category      2     5.29
    ##  5     2    46 category      6     7.57
    ##  6     2    46 category     12     8.29
    ##  7     3    33 property      2     5.43
    ##  8     3    33 property      6     4.86
    ##  9     3    33 property     12     4.29
    ## 10     4    71 property      2     4.57
    ## # ... with 665 more rows
…
